dplyr - WikiOD
…
filtre #

“filtre”, belirli ölçütlerle eşleşen satırların alt kümesine yardımcı olur. İlk bağımsız değişken “veri.çerçevesi"nin adıdır ve ikinci (ve sonraki) bağımsız değişkenler verileri filtreleyen ölçütlerdir (bu ölçütler “DOĞRU” veya “YANLIŞ” olarak değerlendirilmelidir)

4 silindirli - “cyl” olan tüm arabaları alt küme:

filter(mtcars_tbl, cyl == 4) 

# A tibble: 11 x 12
#             cars   mpg   cyl  disp    hp  drat    wt  qsec    vs    am  gear  carb
#            <chr> <dbl> <dbl> <dbl> <dbl> <dbl> <dbl> <dbl> <dbl> <dbl> <dbl> <dbl>
#1      Datsun 710  22.8     4 108.0    93  3.85 2.320 18.61     1     1     4     1
#2       Merc 240D  24.4     4 146.7    62  3.69 3.190 20.00     1     0     4     2
#3        Merc 230  22.8     4 140.8    95  3.92 3.150 22.90     1     0     4     2
#4        Fiat 128  32.4     4  78.7    66  4.08 2.200 19.47     1     1     4     1
#5     Honda Civic  30.4     4  75.7    52  4.93 1.615 18.52     1     1     4     2
# ... with 6 more rows
…
slice(mtcars_tbl, -c(1:5, 10:n())) 

Bu, slice(mtcars_tbl, 6:9) ile aynı çıktıyla sonuçlanır.

n() geçerli gruptaki gözlemlerin sayısını temsil eder

düzenlemek #

‘arrange’, verileri belirtilen değişken(ler)e göre sıralamak için kullanılır. Tıpkı önceki fiil gibi (ve “dplyr"deki diğer tüm işlevler), ilk argüman bir “data.frame"dir ve sonuç argümanları verileri sıralamak için kullanılır. Birden fazla değişken iletilirse, veriler önce ilk değişkene, ardından ikinci değişkene göre sıralanır ve bu şekilde devam eder.

Verileri beygir gücü - hp ile sıralamak için

arrange(mtcars_tbl, hp) 

# A tibble: 32 x 12
#             cars   mpg   cyl  disp    hp  drat    wt  qsec    vs    am  gear  carb
#            <chr> <dbl> <dbl> <dbl> <dbl> <dbl> <dbl> <dbl> <dbl> <dbl> <dbl> <dbl>
#1     Honda Civic  30.4     4  75.7    52  4.93 1.615 18.52     1     1     4     2
#2       Merc 240D  24.4     4 146.7    62  3.69 3.190 20.00     1     0     4     2
#3  Toyota Corolla  33.9     4  71.1    65  4.22 1.835 19.90     1     1     4     1
#4        Fiat 128  32.4     4  78.7    66  4.08 2.200 19.47     1     1     4     1
#5       Fiat X1-9  27.3     4  79.0    66  4.08 1.935 18.90     1     1     4     1
#6   Porsche 914-2  26.0     4 120.3    91  4.43 2.140 16.70     0     1     5     2
# ... with 26 more rows

Verileri * galon başına mil* - “mpg” ve ardından silindir sayısı - “silindir” şeklinde “düzenlemek” için:

arrange(mtcars_tbl, desc(mpg), cyl)

# A tibble: 32 x 12
#             cars   mpg   cyl  disp    hp  drat    wt  qsec    vs    am  gear  carb
#            <chr> <dbl> <dbl> <dbl> <dbl> <dbl> <dbl> <dbl> <dbl> <dbl> <dbl> <dbl>
#1  Toyota Corolla  33.9     4  71.1    65  4.22 1.835 19.90     1     1     4     1
#2        Fiat 128  32.4     4  78.7    66  4.08 2.200 19.47     1     1     4     1
#3     Honda Civic  30.4     4  75.7    52  4.93 1.615 18.52     1     1     4     2
#4    Lotus Europa  30.4     4  95.1   113  3.77 1.513 16.90     1     1     5     2
#5       Fiat X1-9  27.3     4  79.0    66  4.08 1.935 18.90     1     1     4     1
#6   Porsche 914-2  26.0     4 120.3    91  4.43 2.140 16.70     0     1     5     2
# ... with 26 more rows

seçme #

“select” yalnızca bir değişken alt kümesini seçmek için kullanılır. “mtcars_tbl"dan yalnızca “mpg”, “disp”, “wt”, “qsec” ve “vs"yi seçmek için:

select(mtcars_tbl, mpg, disp, wt, qsec, vs)

# A tibble: 32 x 5
#     mpg  disp    wt  qsec    vs
#   <dbl> <dbl> <dbl> <dbl> <dbl>
#1   21.0 160.0 2.620 16.46     0
#2   21.0 160.0 2.875 17.02     0
#3   22.8 108.0 2.320 18.61     1
#4   21.4 258.0 3.215 19.44     1
#5   18.7 360.0 3.440 17.02     0
#6   18.1 225.0 3.460 20.22     1
# ... with 26 more rows

: gösterimi ardışık sütunları seçmek için kullanılabilir. “arabalar"dan “disp"ye ve “vs"den “karb"a kadar olan sütunları seçmek için:

select(mtcars_tbl, cars:disp, vs:carb)

# A tibble: 32 x 8
#                cars   mpg   cyl  disp    vs    am  gear  carb
#               <chr> <dbl> <dbl> <dbl> <dbl> <dbl> <dbl> <dbl>
#1          Mazda RX4  21.0     6 160.0     0     1     4     4
#2      Mazda RX4 Wag  21.0     6 160.0     0     1     4     4
#3         Datsun 710  22.8     4 108.0     1     1     4     1
#4     Hornet 4 Drive  21.4     6 258.0     1     0     3     1
#5  Hornet Sportabout  18.7     8 360.0     0     0     3     2
#6            Valiant  18.1     6 225.0     1     0     3     1
# ... with 26 more rows

veya select(mtcars_tbl, -(hp:qsec))

Birkaç sütun içeren veri kümeleri için, adına göre birkaç sütun seçmek sıkıcı olabilir. Hayatı kolaylaştırmak için bir dizi yardımcı işlev vardır (starts_with(), ends_with(), contains(), matches(), num_range(), one_of() gibi ve ‘seç’ içinde kullanılabilen ‘her şey()’. Bunları nasıl kullanacağınız hakkında daha fazla bilgi edinmek için ?select_helpers ve ?select bölümlerine bakın.

Not: Doğrudan select() içindeki sütunlara atıfta bulunurken, çıplak sütun adları kullanıyoruz, ancak yardımcı işlevlerde sütunlara atıfta bulunurken tırnak işaretleri kullanılmalıdır.

Seçerken sütunları yeniden adlandırmak için:

select(mtcars_tbl, cylinders = cyl, displacement = disp) 

# A tibble: 32 x 2
#   cylinders displacement
#       <dbl>        <dbl>
#1          6        160.0
#2          6        160.0
#3          4        108.0
#4          6        258.0
#5          8        360.0
#6          6        225.0
# ... with 26 more rows

Beklendiği gibi, bu diğer tüm değişkenleri düşürür.

Sütunları diğer değişkenleri bırakmadan yeniden adlandırmak için “yeniden adlandır"ı kullanın:

rename(mtcars_tbl, cylinders = cyl, displacement = disp)

# A tibble: 32 x 12
#                cars   mpg cylinders displacement    hp  drat    wt  qsec    vs
#               <chr> <dbl>     <dbl>        <dbl> <dbl> <dbl> <dbl> <dbl> <dbl>
#1          Mazda RX4  21.0         6        160.0   110  3.90 2.620 16.46     0
#2      Mazda RX4 Wag  21.0         6        160.0   110  3.90 2.875 17.02     0
#3         Datsun 710  22.8         4        108.0    93  3.85 2.320 18.61     1
#4     Hornet 4 Drive  21.4         6        258.0   110  3.08 3.215 19.44     1
#5  Hornet Sportabout  18.7         8        360.0   175  3.15 3.440 17.02     0
#6            Valiant  18.1         6        225.0   105  2.76 3.460 20.22     1
# ... with 26 more rows, and 3 more variables: am <dbl>, gear <dbl>, carb <dbl>

mutasyon #

“mutate”, verilere yeni sütunlar eklemek için kullanılabilir. dplyr’deki diğer tüm işlevler gibi, mutasyon yeni oluşturulan sütunları orijinal verilere eklemez. Sütunlar “data.frame"in sonuna eklenir.

mutate(mtcars_tbl, weight_ton = wt/2, weight_pounds = weight_ton * 2000)

# A tibble: 32 x 14
#                cars   mpg   cyl  disp    hp  drat    wt  qsec    vs    am  gear  carb weight_ton weight_pounds
#               <chr> <dbl> <dbl> <dbl> <dbl> <dbl> <dbl> <dbl> <dbl> <dbl> <dbl> <dbl>      <dbl>         <dbl>
#1          Mazda RX4  21.0     6 160.0   110  3.90 2.620 16.46     0     1     4     4     1.3100          2620
#2      Mazda RX4 Wag  21.0     6 160.0   110  3.90 2.875 17.02     0     1     4     4     1.4375          2875
#3         Datsun 710  22.8     4 108.0    93  3.85 2.320 18.61     1     1     4     1     1.1600          2320
#4     Hornet 4 Drive  21.4     6 258.0   110  3.08 3.215 19.44     1     0     3     1     1.6075          3215
#5  Hornet Sportabout  18.7     8 360.0   175  3.15 3.440 17.02     0     0     3     2     1.7200          3440
#6            Valiant  18.1     6 225.0   105  2.76 3.460 20.22     1     0     3     1     1.7300          3460
# ... with 26 more rows

Not ‘weight_pounds’ oluştururken ‘weight_ton’ kullanımına dikkat edin. Temel ‘R’den farklı olarak, ‘mutate’, daha sonraki bir işlem için kullanılmak üzere yeni oluşturduğumuz sütunlara başvurmamıza izin verir.

Yalnızca yeni oluşturulan sütunları korumak için “değiştir” yerine “dönüştür” kullanın:

transmute(mtcars_tbl, weight_ton = wt/2, weight_pounds = weight_ton * 2000)

# A tibble: 32 x 2
#   weight_ton weight_pounds
#        <dbl>         <dbl>
#1      1.3100          2620
#2      1.4375          2875
#3      1.1600          2320
#4      1.6075          3215
#5      1.7200          3440
#6      1.7300          3460
# ... with 26 more rows
…
Hepsini bir araya getirmek #

“Arabalar"dan “hp” ve “dişli"ye kadar olan sütunları seçiyoruz, satırları “silindir"e ve en yüksekten en düşüğe “mpg"ye göre sıralıyoruz, verileri “dişli"ye göre gruplandırıyoruz ve son olarak yalnızca “mpg"ye sahip arabaların alt kümelerini yapıyoruz. > 20 ve “hp” > 75

selected <- select(mtcars_tbl, cars:hp, gear)
ordered <- arrange(selected, cyl, desc(mpg))
by_cyl <- group_by(ordered, gear)
filter(by_cyl, mpg > 20, hp > 75)

Source: local data frame [9 x 6]
Groups: gear [3]

#            cars   mpg   cyl  disp    hp  gear
#           <chr> <dbl> <dbl> <dbl> <dbl> <dbl>
#1   Lotus Europa  30.4     4  95.1   113     5
#2  Porsche 914-2  26.0     4 120.3    91     5
#3     Datsun 710  22.8     4 108.0    93     4
#4       Merc 230  22.8     4 140.8    95     4
#5  Toyota Corona  21.5     4 120.1    97     3
# ... with 4 more rows
…
