dplyr - WikiOD
…
filtro #

filter ayuda a crear subconjuntos de filas que coinciden con ciertos criterios. El primer argumento es el nombre del data.frame y el segundo (y subsiguientes) argumentos son los criterios que filtran los datos (estos criterios deben evaluarse como VERDADERO o FALSO)

Subconjunto de todos los autos que tienen 4 cilindros - cyl:

filter(mtcars_tbl, cyl == 4) 

# A tibble: 11 x 12
#             cars   mpg   cyl  disp    hp  drat    wt  qsec    vs    am  gear  carb
#            <chr> <dbl> <dbl> <dbl> <dbl> <dbl> <dbl> <dbl> <dbl> <dbl> <dbl> <dbl>
#1      Datsun 710  22.8     4 108.0    93  3.85 2.320 18.61     1     1     4     1
#2       Merc 240D  24.4     4 146.7    62  3.69 3.190 20.00     1     0     4     2
#3        Merc 230  22.8     4 140.8    95  3.92 3.150 22.90     1     0     4     2
#4        Fiat 128  32.4     4  78.7    66  4.08 2.200 19.47     1     1     4     1
#5     Honda Civic  30.4     4  75.7    52  4.93 1.615 18.52     1     1     4     2
# ... with 6 more rows
…
slice(mtcars_tbl, -c(1:5, 10:n())) 

Esto da como resultado el mismo resultado que slice(mtcars_tbl, 6:9)

n() representa el número de observaciones en el grupo actual

arreglar #

arrange se usa para ordenar los datos por una(s) variable(s) específica(s). Al igual que el verbo anterior (y todas las demás funciones en dplyr), el primer argumento es un data.frame, y los argumentos consiguientes se usan para ordenar los datos. Si se pasa más de una variable, los datos se ordenan primero por la primera variable, luego por la segunda variable y así sucesivamente.

Para ordenar los datos por caballos de fuerza - hp

arrange(mtcars_tbl, hp) 

# A tibble: 32 x 12
#             cars   mpg   cyl  disp    hp  drat    wt  qsec    vs    am  gear  carb
#            <chr> <dbl> <dbl> <dbl> <dbl> <dbl> <dbl> <dbl> <dbl> <dbl> <dbl> <dbl>
#1     Honda Civic  30.4     4  75.7    52  4.93 1.615 18.52     1     1     4     2
#2       Merc 240D  24.4     4 146.7    62  3.69 3.190 20.00     1     0     4     2
#3  Toyota Corolla  33.9     4  71.1    65  4.22 1.835 19.90     1     1     4     1
#4        Fiat 128  32.4     4  78.7    66  4.08 2.200 19.47     1     1     4     1
#5       Fiat X1-9  27.3     4  79.0    66  4.08 1.935 18.90     1     1     4     1
#6   Porsche 914-2  26.0     4 120.3    91  4.43 2.140 16.70     0     1     5     2
# ... with 26 more rows

Para ‘arreglar’ los datos por millas por galón - ‘mpg’ en orden descendente, seguido de número de cilindros - ‘cyl’:

arrange(mtcars_tbl, desc(mpg), cyl)

# A tibble: 32 x 12
#             cars   mpg   cyl  disp    hp  drat    wt  qsec    vs    am  gear  carb
#            <chr> <dbl> <dbl> <dbl> <dbl> <dbl> <dbl> <dbl> <dbl> <dbl> <dbl> <dbl>
#1  Toyota Corolla  33.9     4  71.1    65  4.22 1.835 19.90     1     1     4     1
#2        Fiat 128  32.4     4  78.7    66  4.08 2.200 19.47     1     1     4     1
#3     Honda Civic  30.4     4  75.7    52  4.93 1.615 18.52     1     1     4     2
#4    Lotus Europa  30.4     4  95.1   113  3.77 1.513 16.90     1     1     5     2
#5       Fiat X1-9  27.3     4  79.0    66  4.08 1.935 18.90     1     1     4     1
#6   Porsche 914-2  26.0     4 120.3    91  4.43 2.140 16.70     0     1     5     2
# ... with 26 more rows

Seleccione #

select se usa para seleccionar solo un subconjunto de variables. Para seleccionar solo mpg, disp, wt, qsec y vs de mtcars_tbl:

select(mtcars_tbl, mpg, disp, wt, qsec, vs)

# A tibble: 32 x 5
#     mpg  disp    wt  qsec    vs
#   <dbl> <dbl> <dbl> <dbl> <dbl>
#1   21.0 160.0 2.620 16.46     0
#2   21.0 160.0 2.875 17.02     0
#3   22.8 108.0 2.320 18.61     1
#4   21.4 258.0 3.215 19.44     1
#5   18.7 360.0 3.440 17.02     0
#6   18.1 225.0 3.460 20.22     1
# ... with 26 more rows

La notación : se puede utilizar para seleccionar columnas consecutivas. Para seleccionar columnas desde cars hasta disp y vs hasta carb:

select(mtcars_tbl, cars:disp, vs:carb)

# A tibble: 32 x 8
#                cars   mpg   cyl  disp    vs    am  gear  carb
#               <chr> <dbl> <dbl> <dbl> <dbl> <dbl> <dbl> <dbl>
#1          Mazda RX4  21.0     6 160.0     0     1     4     4
#2      Mazda RX4 Wag  21.0     6 160.0     0     1     4     4
#3         Datsun 710  22.8     4 108.0     1     1     4     1
#4     Hornet 4 Drive  21.4     6 258.0     1     0     3     1
#5  Hornet Sportabout  18.7     8 360.0     0     0     3     2
#6            Valiant  18.1     6 225.0     1     0     3     1
# ... with 26 more rows

o select(mtcars_tbl, -(hp:qsec))

Para conjuntos de datos que contienen varias columnas, puede resultar tedioso seleccionar varias columnas por nombre. Para hacer la vida más fácil, hay una serie de funciones auxiliares (como starts_with(), ends_with(), contains(), matches(), num_range(), one_of() , y todo()) que se puede usar en select. Para obtener más información sobre cómo usarlos, consulte ?select_helpers y ?select.

Nota: Al referirnos a las columnas directamente en select(), usamos nombres de columnas simples, pero se deben usar comillas al referirnos a las columnas en las funciones auxiliares.

Para cambiar el nombre de las columnas mientras selecciona:

select(mtcars_tbl, cylinders = cyl, displacement = disp) 

# A tibble: 32 x 2
#   cylinders displacement
#       <dbl>        <dbl>
#1          6        160.0
#2          6        160.0
#3          4        108.0
#4          6        258.0
#5          8        360.0
#6          6        225.0
# ... with 26 more rows

Como era de esperar, esto elimina todas las demás variables.

Para cambiar el nombre de las columnas sin eliminar otras variables, use rename:

rename(mtcars_tbl, cylinders = cyl, displacement = disp)

# A tibble: 32 x 12
#                cars   mpg cylinders displacement    hp  drat    wt  qsec    vs
#               <chr> <dbl>     <dbl>        <dbl> <dbl> <dbl> <dbl> <dbl> <dbl>
#1          Mazda RX4  21.0         6        160.0   110  3.90 2.620 16.46     0
#2      Mazda RX4 Wag  21.0         6        160.0   110  3.90 2.875 17.02     0
#3         Datsun 710  22.8         4        108.0    93  3.85 2.320 18.61     1
#4     Hornet 4 Drive  21.4         6        258.0   110  3.08 3.215 19.44     1
#5  Hornet Sportabout  18.7         8        360.0   175  3.15 3.440 17.02     0
#6            Valiant  18.1         6        225.0   105  2.76 3.460 20.22     1
# ... with 26 more rows, and 3 more variables: am <dbl>, gear <dbl>, carb <dbl>

mutar #

mutate se puede usar para agregar nuevas columnas a los datos. Como todas las demás funciones en dplyr, mutate no agrega las columnas recién creadas a los datos originales. Las columnas se agregan al final del data.frame.

mutate(mtcars_tbl, weight_ton = wt/2, weight_pounds = weight_ton * 2000)

# A tibble: 32 x 14
#                cars   mpg   cyl  disp    hp  drat    wt  qsec    vs    am  gear  carb weight_ton weight_pounds
#               <chr> <dbl> <dbl> <dbl> <dbl> <dbl> <dbl> <dbl> <dbl> <dbl> <dbl> <dbl>      <dbl>         <dbl>
#1          Mazda RX4  21.0     6 160.0   110  3.90 2.620 16.46     0     1     4     4     1.3100          2620
#2      Mazda RX4 Wag  21.0     6 160.0   110  3.90 2.875 17.02     0     1     4     4     1.4375          2875
#3         Datsun 710  22.8     4 108.0    93  3.85 2.320 18.61     1     1     4     1     1.1600          2320
#4     Hornet 4 Drive  21.4     6 258.0   110  3.08 3.215 19.44     1     0     3     1     1.6075          3215
#5  Hornet Sportabout  18.7     8 360.0   175  3.15 3.440 17.02     0     0     3     2     1.7200          3440
#6            Valiant  18.1     6 225.0   105  2.76 3.460 20.22     1     0     3     1     1.7300          3460
# ... with 26 more rows

Tenga en cuenta el uso de weight_ton al crear weight_pounds. A diferencia de la base R, mutate nos permite referirnos a columnas que acabamos de crear para usar en una operación posterior.

Para retener solo las columnas recién creadas, use transmutar en lugar de mutar:

transmute(mtcars_tbl, weight_ton = wt/2, weight_pounds = weight_ton * 2000)

# A tibble: 32 x 2
#   weight_ton weight_pounds
#        <dbl>         <dbl>
#1      1.3100          2620
#2      1.4375          2875
#3      1.1600          2320
#4      1.6075          3215
#5      1.7200          3440
#6      1.7300          3460
# ... with 26 more rows
…
Poniéndolo todo junto #

Seleccionamos columnas desde coches hasta hp y marcha, ordenamos las filas por cilindros y de mayor a menor mpg, agrupamos los datos por marcha y, finalmente, subdividimos solo aquellos autos que tienen mpg > 20 y cv > 75

selected <- select(mtcars_tbl, cars:hp, gear)
ordered <- arrange(selected, cyl, desc(mpg))
by_cyl <- group_by(ordered, gear)
filter(by_cyl, mpg > 20, hp > 75)

Source: local data frame [9 x 6]
Groups: gear [3]

#            cars   mpg   cyl  disp    hp  gear
#           <chr> <dbl> <dbl> <dbl> <dbl> <dbl>
#1   Lotus Europa  30.4     4  95.1   113     5
#2  Porsche 914-2  26.0     4 120.3    91     5
#3     Datsun 710  22.8     4 108.0    93     4
#4       Merc 230  22.8     4 140.8    95     4
#5  Toyota Corona  21.5     4 120.1    97     3
# ... with 4 more rows
…
