dplyr - WikiOD
…
filtro #

filter ajuda a subconjunto de linhas que correspondem a determinados critérios. O primeiro argumento é o nome do data.frame e o segundo (e subsequentes) argumentos são os critérios que filtram os dados (esses critérios devem ser avaliados como TRUE ou FALSE)

Subconjunto de todos os carros que têm 4 cilindros - cyl:

filter(mtcars_tbl, cyl == 4) 

# A tibble: 11 x 12
#             cars   mpg   cyl  disp    hp  drat    wt  qsec    vs    am  gear  carb
#            <chr> <dbl> <dbl> <dbl> <dbl> <dbl> <dbl> <dbl> <dbl> <dbl> <dbl> <dbl>
#1      Datsun 710  22.8     4 108.0    93  3.85 2.320 18.61     1     1     4     1
#2       Merc 240D  24.4     4 146.7    62  3.69 3.190 20.00     1     0     4     2
#3        Merc 230  22.8     4 140.8    95  3.92 3.150 22.90     1     0     4     2
#4        Fiat 128  32.4     4  78.7    66  4.08 2.200 19.47     1     1     4     1
#5     Honda Civic  30.4     4  75.7    52  4.93 1.615 18.52     1     1     4     2
# ... with 6 more rows
…
slice(mtcars_tbl, -c(1:5, 10:n())) 

Isso resulta na mesma saída que slice(mtcars_tbl, 6:9)

n() representa o número de observações no grupo atual

arranjo #

arrange é usado para classificar os dados por uma(s) variável(is) especificada(s). Assim como o verbo anterior (e todas as outras funções em dplyr), o primeiro argumento é um data.frame, e argumentos consequentes são usados ​​para classificar os dados. Se mais de uma variável for passada, os dados serão classificados primeiro pela primeira variável, depois pela segunda variável e assim por diante.

Para ordenar os dados por cavalo de força - hp

arrange(mtcars_tbl, hp) 

# A tibble: 32 x 12
#             cars   mpg   cyl  disp    hp  drat    wt  qsec    vs    am  gear  carb
#            <chr> <dbl> <dbl> <dbl> <dbl> <dbl> <dbl> <dbl> <dbl> <dbl> <dbl> <dbl>
#1     Honda Civic  30.4     4  75.7    52  4.93 1.615 18.52     1     1     4     2
#2       Merc 240D  24.4     4 146.7    62  3.69 3.190 20.00     1     0     4     2
#3  Toyota Corolla  33.9     4  71.1    65  4.22 1.835 19.90     1     1     4     1
#4        Fiat 128  32.4     4  78.7    66  4.08 2.200 19.47     1     1     4     1
#5       Fiat X1-9  27.3     4  79.0    66  4.08 1.935 18.90     1     1     4     1
#6   Porsche 914-2  26.0     4 120.3    91  4.43 2.140 16.70     0     1     5     2
# ... with 26 more rows

Para organizar os dados por milhas por galão - mpg em ordem decrescente, seguido por número de cilindros - cil:

arrange(mtcars_tbl, desc(mpg), cyl)

# A tibble: 32 x 12
#             cars   mpg   cyl  disp    hp  drat    wt  qsec    vs    am  gear  carb
#            <chr> <dbl> <dbl> <dbl> <dbl> <dbl> <dbl> <dbl> <dbl> <dbl> <dbl> <dbl>
#1  Toyota Corolla  33.9     4  71.1    65  4.22 1.835 19.90     1     1     4     1
#2        Fiat 128  32.4     4  78.7    66  4.08 2.200 19.47     1     1     4     1
#3     Honda Civic  30.4     4  75.7    52  4.93 1.615 18.52     1     1     4     2
#4    Lotus Europa  30.4     4  95.1   113  3.77 1.513 16.90     1     1     5     2
#5       Fiat X1-9  27.3     4  79.0    66  4.08 1.935 18.90     1     1     4     1
#6   Porsche 914-2  26.0     4 120.3    91  4.43 2.140 16.70     0     1     5     2
# ... with 26 more rows

selecione #

select é usado para selecionar apenas um subconjunto de variáveis. Para selecionar apenas mpg, disp, wt, qsec e vs de mtcars_tbl:

select(mtcars_tbl, mpg, disp, wt, qsec, vs)

# A tibble: 32 x 5
#     mpg  disp    wt  qsec    vs
#   <dbl> <dbl> <dbl> <dbl> <dbl>
#1   21.0 160.0 2.620 16.46     0
#2   21.0 160.0 2.875 17.02     0
#3   22.8 108.0 2.320 18.61     1
#4   21.4 258.0 3.215 19.44     1
#5   18.7 360.0 3.440 17.02     0
#6   18.1 225.0 3.460 20.22     1
# ... with 26 more rows

A notação : pode ser usada para selecionar colunas consecutivas. Para selecionar colunas de cars a disp e vs a carb:

select(mtcars_tbl, cars:disp, vs:carb)

# A tibble: 32 x 8
#                cars   mpg   cyl  disp    vs    am  gear  carb
#               <chr> <dbl> <dbl> <dbl> <dbl> <dbl> <dbl> <dbl>
#1          Mazda RX4  21.0     6 160.0     0     1     4     4
#2      Mazda RX4 Wag  21.0     6 160.0     0     1     4     4
#3         Datsun 710  22.8     4 108.0     1     1     4     1
#4     Hornet 4 Drive  21.4     6 258.0     1     0     3     1
#5  Hornet Sportabout  18.7     8 360.0     0     0     3     2
#6            Valiant  18.1     6 225.0     1     0     3     1
# ... with 26 more rows

ou select(mtcars_tbl, -(hp:qsec))

Para conjuntos de dados que contêm várias colunas, pode ser tedioso selecionar várias colunas por nome. Para facilitar a vida, existem várias funções auxiliares (como starts_with(), ends_with(), contains(), matches(), num_range(), one_of() , e everything()) que podem ser usados ​​em select. Para aprender mais sobre como usá-los, veja ?select_helpers e ?select.

Observação: Ao fazer referência a colunas diretamente em select(), usamos nomes de colunas simples, mas aspas devem ser usadas ao fazer referência a colunas em funções auxiliares.

Para renomear colunas ao selecionar:

select(mtcars_tbl, cylinders = cyl, displacement = disp) 

# A tibble: 32 x 2
#   cylinders displacement
#       <dbl>        <dbl>
#1          6        160.0
#2          6        160.0
#3          4        108.0
#4          6        258.0
#5          8        360.0
#6          6        225.0
# ... with 26 more rows

Como esperado, isso elimina todas as outras variáveis.

Para renomear colunas sem descartar outras variáveis, use rename:

rename(mtcars_tbl, cylinders = cyl, displacement = disp)

# A tibble: 32 x 12
#                cars   mpg cylinders displacement    hp  drat    wt  qsec    vs
#               <chr> <dbl>     <dbl>        <dbl> <dbl> <dbl> <dbl> <dbl> <dbl>
#1          Mazda RX4  21.0         6        160.0   110  3.90 2.620 16.46     0
#2      Mazda RX4 Wag  21.0         6        160.0   110  3.90 2.875 17.02     0
#3         Datsun 710  22.8         4        108.0    93  3.85 2.320 18.61     1
#4     Hornet 4 Drive  21.4         6        258.0   110  3.08 3.215 19.44     1
#5  Hornet Sportabout  18.7         8        360.0   175  3.15 3.440 17.02     0
#6            Valiant  18.1         6        225.0   105  2.76 3.460 20.22     1
# ... with 26 more rows, and 3 more variables: am <dbl>, gear <dbl>, carb <dbl>

mutar #

mutate pode ser usado para adicionar novas colunas aos dados. Como todas as outras funções em dplyr, mutate não adiciona as colunas recém-criadas aos dados originais. As colunas são adicionadas no final do data.frame.

mutate(mtcars_tbl, weight_ton = wt/2, weight_pounds = weight_ton * 2000)

# A tibble: 32 x 14
#                cars   mpg   cyl  disp    hp  drat    wt  qsec    vs    am  gear  carb weight_ton weight_pounds
#               <chr> <dbl> <dbl> <dbl> <dbl> <dbl> <dbl> <dbl> <dbl> <dbl> <dbl> <dbl>      <dbl>         <dbl>
#1          Mazda RX4  21.0     6 160.0   110  3.90 2.620 16.46     0     1     4     4     1.3100          2620
#2      Mazda RX4 Wag  21.0     6 160.0   110  3.90 2.875 17.02     0     1     4     4     1.4375          2875
#3         Datsun 710  22.8     4 108.0    93  3.85 2.320 18.61     1     1     4     1     1.1600          2320
#4     Hornet 4 Drive  21.4     6 258.0   110  3.08 3.215 19.44     1     0     3     1     1.6075          3215
#5  Hornet Sportabout  18.7     8 360.0   175  3.15 3.440 17.02     0     0     3     2     1.7200          3440
#6            Valiant  18.1     6 225.0   105  2.76 3.460 20.22     1     0     3     1     1.7300          3460
# ... with 26 more rows

Observe o uso de weight_ton ao criar weight_pounds. Ao contrário de base R, mutate nos permite fazer referência a colunas que acabamos de criar para serem usadas em uma operação subsequente.

Para reter apenas as colunas recém-criadas, use transmute em vez de mutate:

transmute(mtcars_tbl, weight_ton = wt/2, weight_pounds = weight_ton * 2000)

# A tibble: 32 x 2
#   weight_ton weight_pounds
#        <dbl>         <dbl>
#1      1.3100          2620
#2      1.4375          2875
#3      1.1600          2320
#4      1.6075          3215
#5      1.7200          3440
#6      1.7300          3460
# ... with 26 more rows
…
Juntando tudo #

Selecionamos colunas de cars a hp e gear, ordenamos as linhas por cyl e do maior para o menor mpg, agrupamos os dados por gear e, finalmente, subconjuntos apenas aqueles carros que têm mpg > 20 e hp > 75

selected <- select(mtcars_tbl, cars:hp, gear)
ordered <- arrange(selected, cyl, desc(mpg))
by_cyl <- group_by(ordered, gear)
filter(by_cyl, mpg > 20, hp > 75)

Source: local data frame [9 x 6]
Groups: gear [3]

#            cars   mpg   cyl  disp    hp  gear
#           <chr> <dbl> <dbl> <dbl> <dbl> <dbl>
#1   Lotus Europa  30.4     4  95.1   113     5
#2  Porsche 914-2  26.0     4 120.3    91     5
#3     Datsun 710  22.8     4 108.0    93     4
#4       Merc 230  22.8     4 140.8    95     4
#5  Toyota Corona  21.5     4 120.1    97     3
# ... with 4 more rows
…
