dplyr - WikiOD
…
filtre #

filter aide les lignes de sous-ensemble qui correspondent à certains critères. Le premier argument est le nom de data.frame et le deuxième (et les suivants) arguments sont les critères qui filtrent les données (ces critères doivent être évalués à TRUE ou FALSE)

Sous-ensemble toutes les voitures qui ont 4 cylindres - cyl :

filter(mtcars_tbl, cyl == 4) 

# A tibble: 11 x 12
#             cars   mpg   cyl  disp    hp  drat    wt  qsec    vs    am  gear  carb
#            <chr> <dbl> <dbl> <dbl> <dbl> <dbl> <dbl> <dbl> <dbl> <dbl> <dbl> <dbl>
#1      Datsun 710  22.8     4 108.0    93  3.85 2.320 18.61     1     1     4     1
#2       Merc 240D  24.4     4 146.7    62  3.69 3.190 20.00     1     0     4     2
#3        Merc 230  22.8     4 140.8    95  3.92 3.150 22.90     1     0     4     2
#4        Fiat 128  32.4     4  78.7    66  4.08 2.200 19.47     1     1     4     1
#5     Honda Civic  30.4     4  75.7    52  4.93 1.615 18.52     1     1     4     2
# ... with 6 more rows
…
slice(mtcars_tbl, -c(1:5, 10:n())) 

Cela donne le même résultat que slice(mtcars_tbl, 6:9)

n() représente le nombre d’observations dans le groupe actuel

organiser #

arrange est utilisé pour trier les données selon une ou plusieurs variables spécifiées. Tout comme le verbe précédent (et toutes les autres fonctions de dplyr), le premier argument est un data.frame, et les arguments suivants sont utilisés pour trier les données. Si plusieurs variables sont transmises, les données sont d’abord triées par la première variable, puis par la deuxième variable, et ainsi de suite.

Pour trier les données par chevaux - hp

arrange(mtcars_tbl, hp) 

# A tibble: 32 x 12
#             cars   mpg   cyl  disp    hp  drat    wt  qsec    vs    am  gear  carb
#            <chr> <dbl> <dbl> <dbl> <dbl> <dbl> <dbl> <dbl> <dbl> <dbl> <dbl> <dbl>
#1     Honda Civic  30.4     4  75.7    52  4.93 1.615 18.52     1     1     4     2
#2       Merc 240D  24.4     4 146.7    62  3.69 3.190 20.00     1     0     4     2
#3  Toyota Corolla  33.9     4  71.1    65  4.22 1.835 19.90     1     1     4     1
#4        Fiat 128  32.4     4  78.7    66  4.08 2.200 19.47     1     1     4     1
#5       Fiat X1-9  27.3     4  79.0    66  4.08 1.935 18.90     1     1     4     1
#6   Porsche 914-2  26.0     4 120.3    91  4.43 2.140 16.70     0     1     5     2
# ... with 26 more rows

Pour organiser les données par miles par gallon - mpg dans l’ordre décroissant, suivi de nombre de cylindres - cyl :

arrange(mtcars_tbl, desc(mpg), cyl)

# A tibble: 32 x 12
#             cars   mpg   cyl  disp    hp  drat    wt  qsec    vs    am  gear  carb
#            <chr> <dbl> <dbl> <dbl> <dbl> <dbl> <dbl> <dbl> <dbl> <dbl> <dbl> <dbl>
#1  Toyota Corolla  33.9     4  71.1    65  4.22 1.835 19.90     1     1     4     1
#2        Fiat 128  32.4     4  78.7    66  4.08 2.200 19.47     1     1     4     1
#3     Honda Civic  30.4     4  75.7    52  4.93 1.615 18.52     1     1     4     2
#4    Lotus Europa  30.4     4  95.1   113  3.77 1.513 16.90     1     1     5     2
#5       Fiat X1-9  27.3     4  79.0    66  4.08 1.935 18.90     1     1     4     1
#6   Porsche 914-2  26.0     4 120.3    91  4.43 2.140 16.70     0     1     5     2
# ... with 26 more rows

sélectionner #

select est utilisé pour sélectionner uniquement un sous-ensemble de variables. Pour sélectionner uniquement mpg, disp, wt, qsec et vs dans mtcars_tbl :

select(mtcars_tbl, mpg, disp, wt, qsec, vs)

# A tibble: 32 x 5
#     mpg  disp    wt  qsec    vs
#   <dbl> <dbl> <dbl> <dbl> <dbl>
#1   21.0 160.0 2.620 16.46     0
#2   21.0 160.0 2.875 17.02     0
#3   22.8 108.0 2.320 18.61     1
#4   21.4 258.0 3.215 19.44     1
#5   18.7 360.0 3.440 17.02     0
#6   18.1 225.0 3.460 20.22     1
# ... with 26 more rows

La notation : peut être utilisée pour sélectionner des colonnes consécutives. Pour sélectionner des colonnes de cars à disp et vs à carb :

select(mtcars_tbl, cars:disp, vs:carb)

# A tibble: 32 x 8
#                cars   mpg   cyl  disp    vs    am  gear  carb
#               <chr> <dbl> <dbl> <dbl> <dbl> <dbl> <dbl> <dbl>
#1          Mazda RX4  21.0     6 160.0     0     1     4     4
#2      Mazda RX4 Wag  21.0     6 160.0     0     1     4     4
#3         Datsun 710  22.8     4 108.0     1     1     4     1
#4     Hornet 4 Drive  21.4     6 258.0     1     0     3     1
#5  Hornet Sportabout  18.7     8 360.0     0     0     3     2
#6            Valiant  18.1     6 225.0     1     0     3     1
# ... with 26 more rows

ou select(mtcars_tbl, -(hp:qsec))

Pour les jeux de données qui contiennent plusieurs colonnes, il peut être fastidieux de sélectionner plusieurs colonnes par leur nom. Pour vous faciliter la vie, il existe un certain nombre de fonctions d’assistance (telles que starts_with(), ends_with(), contains(), matches(), num_range(), one_of() , et everything()) qui peuvent être utilisés dans select. Pour en savoir plus sur leur utilisation, consultez ?select_helpers et ?select.

Remarque : lorsque nous nous référons directement aux colonnes dans select(), nous utilisons des noms de colonne nus, mais les guillemets doivent être utilisés lors de la référence aux colonnes dans les fonctions d’assistance.

Pour renommer des colonnes lors de la sélection :

select(mtcars_tbl, cylinders = cyl, displacement = disp) 

# A tibble: 32 x 2
#   cylinders displacement
#       <dbl>        <dbl>
#1          6        160.0
#2          6        160.0
#3          4        108.0
#4          6        258.0
#5          8        360.0
#6          6        225.0
# ... with 26 more rows

Comme prévu, cela supprime toutes les autres variables.

Pour renommer les colonnes sans supprimer d’autres variables, utilisez rename :

rename(mtcars_tbl, cylinders = cyl, displacement = disp)

# A tibble: 32 x 12
#                cars   mpg cylinders displacement    hp  drat    wt  qsec    vs
#               <chr> <dbl>     <dbl>        <dbl> <dbl> <dbl> <dbl> <dbl> <dbl>
#1          Mazda RX4  21.0         6        160.0   110  3.90 2.620 16.46     0
#2      Mazda RX4 Wag  21.0         6        160.0   110  3.90 2.875 17.02     0
#3         Datsun 710  22.8         4        108.0    93  3.85 2.320 18.61     1
#4     Hornet 4 Drive  21.4         6        258.0   110  3.08 3.215 19.44     1
#5  Hornet Sportabout  18.7         8        360.0   175  3.15 3.440 17.02     0
#6            Valiant  18.1         6        225.0   105  2.76 3.460 20.22     1
# ... with 26 more rows, and 3 more variables: am <dbl>, gear <dbl>, carb <dbl>

subir une mutation #

mutate peut être utilisé pour ajouter de nouvelles colonnes aux données. Comme toutes les autres fonctions de dplyr, mutate n’ajoute pas les colonnes nouvellement créées aux données d’origine. Les colonnes sont ajoutées à la fin de data.frame.

mutate(mtcars_tbl, weight_ton = wt/2, weight_pounds = weight_ton * 2000)

# A tibble: 32 x 14
#                cars   mpg   cyl  disp    hp  drat    wt  qsec    vs    am  gear  carb weight_ton weight_pounds
#               <chr> <dbl> <dbl> <dbl> <dbl> <dbl> <dbl> <dbl> <dbl> <dbl> <dbl> <dbl>      <dbl>         <dbl>
#1          Mazda RX4  21.0     6 160.0   110  3.90 2.620 16.46     0     1     4     4     1.3100          2620
#2      Mazda RX4 Wag  21.0     6 160.0   110  3.90 2.875 17.02     0     1     4     4     1.4375          2875
#3         Datsun 710  22.8     4 108.0    93  3.85 2.320 18.61     1     1     4     1     1.1600          2320
#4     Hornet 4 Drive  21.4     6 258.0   110  3.08 3.215 19.44     1     0     3     1     1.6075          3215
#5  Hornet Sportabout  18.7     8 360.0   175  3.15 3.440 17.02     0     0     3     2     1.7200          3440
#6            Valiant  18.1     6 225.0   105  2.76 3.460 20.22     1     0     3     1     1.7300          3460
# ... with 26 more rows

Note l’utilisation de weight_ton lors de la création de weight_pounds. Contrairement à la base R, mutate nous permet de faire référence aux colonnes que nous venons de créer pour être utilisées pour une opération ultérieure.

Pour ne conserver que les colonnes nouvellement créées, utilisez transmute au lieu de mutate :

transmute(mtcars_tbl, weight_ton = wt/2, weight_pounds = weight_ton * 2000)

# A tibble: 32 x 2
#   weight_ton weight_pounds
#        <dbl>         <dbl>
#1      1.3100          2620
#2      1.4375          2875
#3      1.1600          2320
#4      1.6075          3215
#5      1.7200          3440
#6      1.7300          3460
# ... with 26 more rows
…
Tout assembler #

Nous sélectionnons des colonnes de cars à hp et gear, ordonnons les lignes par cyl et du plus haut au plus bas mpg, regroupons les données par gear, et enfin sous-ensemble uniquement ces voitures ont mpg > 20 et ch > 75

selected <- select(mtcars_tbl, cars:hp, gear)
ordered <- arrange(selected, cyl, desc(mpg))
by_cyl <- group_by(ordered, gear)
filter(by_cyl, mpg > 20, hp > 75)

Source: local data frame [9 x 6]
Groups: gear [3]

#            cars   mpg   cyl  disp    hp  gear
#           <chr> <dbl> <dbl> <dbl> <dbl> <dbl>
#1   Lotus Europa  30.4     4  95.1   113     5
#2  Porsche 914-2  26.0     4 120.3    91     5
#3     Datsun 710  22.8     4 108.0    93     4
#4       Merc 230  22.8     4 140.8    95     4
#5  Toyota Corona  21.5     4 120.1    97     3
# ... with 4 more rows
…
